{
    "type": "mysql",
    "host": "localhost",
    "port": 3306,
    "username": "dev",
    "password": "pass",
    "database": "vinilon",
    "entities": ["dist-server/**/*.entity.js"],
    "synchronize": true,
    "logging": false
  }
